{
    "nome": "Simone",
    "cognome": "Tugnetti",
    "jobTitle": "Studente",
    "anno": 1997,
    "titolo": "Diploma ITIS - Informatica",
    "skill": [
        {
            "competenza": "Linguaggio - C",
            "voto": 100
        },
        {
            "competenza": "Linguaggio - JAVA",
            "voto": 90
        },
        {
            "competenza": "Comunicazione - Livello orientamento",
            "voto": 80
        },
        {
            "competenza": "Marketing - Livello base",
            "voto": 75
        },
        {
            "competenza": "Scrittura - Livello intermedio / esperto",
            "voto": 85
        }
    ],
    "foto": "profilo.jpg",
    "elevator": "Sono un personaggio!",
    "portfolio": [
        {
            "titolo": "Sito web CMR",
            "img": "cmr.png",
            "descrizione": "Riproduzione del sito originale CMR"
        },
        {
            "titolo": "Programma JAVA Ordini",
            "img": "ordini.png",
            "descrizione": "Creazione di un programma per la gestione degli ordini"
        },
        {
            "titolo": "Applicazione Android Login",
            "img": "login.jpg",
            "descrizione": "Creazione di un'applicazione android in cui si simula un login"
        },
        {
            "titolo": "Database per raduni e conferenze",
            "img": "database.png",
            "descrizione": "Creazione di database per la gestione di raduni e/o conferenze"
        }
    ]
}